<?xml version='1.0' encoding='UTF-8' standalone='no'?>
<!-- Created with Fritzing (http://www.fritzing.org/) -->
<svg xmlns:svg='http://www.w3.org/2000/svg' xmlns='http://www.w3.org/2000/svg' version='1.2' baseProfile='tiny' x='0in' y='0in' width='1.97499in' height='1.12883in' viewBox='0 0 142.199 81.276' >
<g partID='854367090'><g transform='translate(142.199,81.276)' ><g transform='matrix(-1,0,0,-1,0,0)'  ><g transform="matrix(1, 0, 0, 1, 0, -324)">
<g id="breadboard">
<g gorn="0.6.0.0">
<g transform="matrix(0, 1, -1, 0, 81, 279)">
<g>
<path d="m81,63a18,18,0,1,1,-36,0,18,18,0,1,1,36,0z" id="path3203" style="display:inline" fill="#1a1a1a" stroke="none" gorn="0.6.0.0.0.0" fill-opacity="1"/>
</g>
</g>
<path d="m18,352.8c-2.77686,0,-5.073,2.80503,-5.375,6.4,1.69733,0.530344,3.50291,0.8,5.375,0.8,1.87209,0,3.67767,-0.269656,5.375,-0.8,-0.301998,-3.59497,-2.59814,-6.4,-5.375,-6.4z" id="path20190" style="display:inline" fill="url(#linearGradient21372)" stroke="none" gorn="0.6.0.0.1" fill-opacity="1"/>
<g transform="matrix(0, 1, -1, 0, 136.8, 293.4)">
<g>
<path d="m64.8,118.8a1.8,1.8,0,1,1,-3.6,0,1.8,1.8,0,1,1,3.6,0z" id="connector2pin" style="display:inline" fill="#808080" stroke="none" gorn="0.6.0.0.2.0" fill-opacity="1"/>
</g>
</g>
<path d="m18,331.2c2.77686,0,5.073,-2.80503,5.375,-6.4,-1.69733,-0.530344,-3.50291,-0.8,-5.375,-0.8,-1.87209,0,-3.67767,0.269656,-5.375,0.8,0.301998,3.59497,2.59814,6.4,5.375,6.4z" id="path21320" style="display:inline" fill="url(#linearGradient21366)" stroke="none" gorn="0.6.0.0.3" fill-opacity="1"/>
<g transform="matrix(0, -1, 1, 0, -100.8, 390.6)">
<g>
<path d="m64.8,118.8a1.8,1.8,0,1,1,-3.6,0,1.8,1.8,0,1,1,3.6,0z" id="connector4pin" style="display:inline" fill="#808080" stroke="none" gorn="0.6.0.0.4.0" fill-opacity="1"/>
</g>
</g>
<path d="m7.2,342c0,-2.77686,-2.80503,-5.073,-6.4,-5.375,-0.530344,1.69734,-0.8,3.50291,-0.8,5.375,0,1.87209,0.269656,3.67766,0.8,5.375,3.59497,-0.302,6.4,-2.59814,6.4,-5.375z" id="path21338" style="display:inline" fill="url(#linearGradient21390)" stroke="none" gorn="0.6.0.0.5" fill-opacity="1"/>
<g transform="matrix(-1, 0, 0, -1, 66.6, 460.8)">
<g>
<path d="m64.8,118.8a1.8,1.8,0,1,1,-3.6,0,1.8,1.8,0,1,1,3.6,0z" id="connector3pin" style="display:inline" fill="#808080" stroke="none" gorn="0.6.0.0.6.0" fill-opacity="1"/>
</g>
</g>
<path d="m28.8,342c0,2.77686,2.80503,5.073,6.4,5.375,0.530344,-1.69734,0.8,-3.50291,0.8,-5.375,0,-1.87209,-0.269656,-3.67766,-0.8,-5.375,-3.59497,0.302,-6.4,2.59814,-6.4,5.375z" id="path21344" style="display:inline" fill="url(#linearGradient21384)" stroke="none" gorn="0.6.0.0.7" fill-opacity="1"/>
<g transform="matrix(1, 0, 0, 1, -30.6, 223.2)">
<g>
<path d="m64.8,118.8a1.8,1.8,0,1,1,-3.6,0,1.8,1.8,0,1,1,3.6,0z" id="connector1pin" style="display:inline" fill="#808080" stroke="none" gorn="0.6.0.0.8.0" fill-opacity="1"/>
</g>
</g>
<g transform="matrix(0.8, 0, 0, 1, 2.16, 0)">
<g>
<g id="g21454" style="display:inline" gorn="0.6.0.0.9.0">
<g transform="scale(-1,-1)">
<g>
<rect width="1.8" id="rect4194" style="display:inline" fill="url(#linearGradient21473)" y="-338.76" x="-10.8" stroke="none" gorn="0.6.0.0.9.0.0.0" fill-opacity="1" height="2.88"/>
</g>
</g>
<g transform="scale(-1,-1)">
<g>
<rect width="1.8" id="rect21446" style="display:inline" fill="url(#linearGradient21475)" y="-343.44" x="-10.8" stroke="none" gorn="0.6.0.0.9.0.1.0" fill-opacity="1" height="2.88"/>
</g>
</g>
<g transform="scale(-1,-1)">
<g>
<rect width="1.8" id="rect21450" style="display:inline" fill="url(#linearGradient21477)" y="-348.12" x="-10.8" stroke="none" gorn="0.6.0.0.9.0.2.0" fill-opacity="1" height="2.88"/>
</g>
</g>
</g>
</g>
</g>
<g transform="matrix(-0.8, 0, 0, -1, 33.84, 684)">
<g>
<g id="g21459" style="display:inline" gorn="0.6.0.0.10.0">
<g transform="scale(-1,-1)">
<g>
<rect width="1.8" id="rect21461" style="display:inline" fill="url(#linearGradient21467)" y="-338.76" x="-10.8" stroke="none" gorn="0.6.0.0.10.0.0.0" fill-opacity="1" height="2.88"/>
</g>
</g>
<g transform="scale(-1,-1)">
<g>
<rect width="1.8" id="rect21463" style="display:inline" fill="url(#linearGradient21469)" y="-343.44" x="-10.8" stroke="none" gorn="0.6.0.0.10.0.1.0" fill-opacity="1" height="2.88"/>
</g>
</g>
<g transform="scale(-1,-1)">
<g>
<rect width="1.8" id="rect21465" style="display:inline" fill="url(#linearGradient21471)" y="-348.12" x="-10.8" stroke="none" gorn="0.6.0.0.10.0.2.0" fill-opacity="1" height="2.88"/>
</g>
</g>
</g>
</g>
</g>
<rect width="14.4" id="rect21392" style="display:inline" fill="#e6e6e6" y="334.8" x="10.8" stroke="none" gorn="0.6.0.0.11" fill-opacity="1" height="14.4"/>
<g transform="matrix(1, 0, 0, 1, 0, 324)">
<g>
<path d="m23.4,18a5.4,5.4,0,1,1,-10.8,0,5.4,5.4,0,1,1,10.8,0z" id="path21480" style="stroke-miterlimit:4;stroke-dasharray:none;display:inline" fill="#b1b1b1" stroke-width="0.432" stroke="url(#linearGradient21488)" gorn="0.6.0.0.12.0" fill-opacity="1"/>
</g>
</g>
<g transform="matrix(1, 0, 0, 1, 14.4, 312.84)">
<g>
<path d="m5.4,32.4a1.8,1.8,0,1,1,-3.6,0,1.8,1.8,0,1,1,3.6,0z" id="path21498" fill="#1423ff" stroke="none" gorn="0.6.0.0.13.0" fill-opacity="1"/>
</g>
</g>
<g transform="matrix(1, 0, 0, 1, 11.16, 309.6)">
<g>
<path d="m5.4,32.4a1.8,1.8,0,1,1,-3.6,0,1.8,1.8,0,1,1,3.6,0z" id="path21500" fill="#ff2a2a" stroke="none" gorn="0.6.0.0.14.0" fill-opacity="1"/>
</g>
</g>
<g transform="matrix(1, 0, 0, 1, 14.4, 306.36)">
<g>
<path d="m5.4,32.4a1.8,1.8,0,1,1,-3.6,0,1.8,1.8,0,1,1,3.6,0z" id="path21526" fill="#00ff0b" stroke="none" gorn="0.6.0.0.15.0" fill-opacity="1"/>
</g>
</g>
<g id="g21552" gorn="0.6.0.0.16">
<g transform="matrix(1, 0, 0, 1, 0, 324)">
<g>
<path d="m11.52,33.48,0,-7.2" id="path21544" style="color:#000000;stroke-linecap:round;stroke-linejoin:miter;stroke-miterlimit:4;stroke-dasharray:none;stroke-dashoffset:0;marker:none;visibility:visible;display:inline;overflow:visible;enable-background:accumulate" fill="#ffffff" stroke-width="0.36" stroke="#ffffff" stroke-opacity="1" gorn="0.6.0.0.16.0.0"/>
</g>
</g>
<g transform="matrix(1, 0, 0, 1, 0, 324)">
<g>
<path d="m10.44,27.72,1.08,-1.44,1.08,1.44" id="path21548" style="color:#000000;stroke-linecap:round;stroke-linejoin:round;stroke-miterlimit:4;stroke-dasharray:none;stroke-dashoffset:0;marker:none;visibility:visible;display:inline;overflow:visible;enable-background:accumulate" fill="none" stroke-width="0.36" stroke="#ffffff" stroke-opacity="1" gorn="0.6.0.0.16.1.0"/>
</g>
</g>
</g>
<g transform="matrix(1, 0, 0, 1, 12.96, -23.76)">
<g>
<g id="g21556" gorn="0.6.0.0.17.0">
<g transform="matrix(1, 0, 0, 1, 0, 324)">
<g>
<path d="m11.52,33.48,0,-7.2" id="path21558" style="color:#000000;stroke-linecap:round;stroke-linejoin:miter;stroke-miterlimit:4;stroke-dasharray:none;stroke-dashoffset:0;marker:none;visibility:visible;display:inline;overflow:visible;enable-background:accumulate" fill="#ffffff" stroke-width="0.36" stroke="#ffffff" stroke-opacity="1" gorn="0.6.0.0.17.0.0.0"/>
</g>
</g>
<g transform="matrix(1, 0, 0, 1, 0, 324)">
<g>
<path d="m10.44,27.72,1.08,-1.44,1.08,1.44" id="path21560" style="color:#000000;stroke-linecap:round;stroke-linejoin:round;stroke-miterlimit:4;stroke-dasharray:none;stroke-dashoffset:0;marker:none;visibility:visible;display:inline;overflow:visible;enable-background:accumulate" fill="none" stroke-width="0.36" stroke="#ffffff" stroke-opacity="1" gorn="0.6.0.0.17.0.1.0"/>
</g>
</g>
</g>
</g>
</g>
<path d="m30.6,349.56,0,-2.88" id="path21562" style="color:#000000;stroke-linecap:round;stroke-linejoin:miter;stroke-miterlimit:4;stroke-dasharray:none;stroke-dashoffset:0;marker:none;visibility:visible;display:inline;overflow:visible;enable-background:accumulate" fill="none" stroke-width="0.415692" stroke="#ffffff" stroke-opacity="1" gorn="0.6.0.0.18"/>
<path d="m29.16,348.12,2.88,0" id="path21566" style="color:#000000;stroke-linecap:round;stroke-linejoin:miter;stroke-miterlimit:4;stroke-dasharray:none;stroke-dashoffset:0;marker:none;visibility:visible;display:inline;overflow:visible;enable-background:accumulate" fill="none" stroke-width="0.415692" stroke="#ffffff" stroke-opacity="1" gorn="0.6.0.0.19"/>
<path d="m3.96,336.6,2.88,0" id="path21570" style="color:#000000;stroke-linecap:round;stroke-linejoin:miter;stroke-miterlimit:4;stroke-dasharray:none;stroke-dashoffset:0;marker:none;visibility:visible;display:inline;overflow:visible;enable-background:accumulate" fill="none" stroke-width="0.415692" stroke="#ffffff" stroke-opacity="1" gorn="0.6.0.0.20"/>
</g>
</g>
</g>
</g></g></g><g partID='854367120'><line stroke-linecap='round' stroke='#000000' x1='138.599' y1='63.276' x2='138.763' y2='20.1431' stroke-width='3.2' /><line stroke-linecap='round' stroke='#404040' x1='138.599' y1='63.276' x2='138.763' y2='20.1431' stroke-width='1.6' /></g><g partID='854367270'><line stroke-linecap='round' stroke='#000000' x1='138.763' y1='20.1431' x2='63.1306' y2='16.3435' stroke-width='3.2' /><line stroke-linecap='round' stroke='#404040' x1='138.763' y1='20.1431' x2='63.1306' y2='16.3435' stroke-width='1.6' /></g><g partID='854367170'><line stroke-linecap='round' stroke='#8c0000' x1='109.799' y1='63.276' x2='63.1313' y2='63.2753' stroke-width='3.2' /><line stroke-linecap='round' stroke='#cc1414' x1='109.799' y1='63.276' x2='63.1313' y2='63.2753' stroke-width='1.6' /></g><g partID='854367220'><line stroke-linecap='round' stroke='#1b5bb3' x1='124.199' y1='48.876' x2='117.154' y2='41.4243' stroke-width='3.2' /><line stroke-linecap='round' stroke='#418dd9' x1='124.199' y1='48.876' x2='117.154' y2='41.4243' stroke-width='1.6' /></g><g partID='854367320'><line stroke-linecap='round' stroke='#1b5bb3' x1='117.154' y1='41.4243' x2='72.8164' y2='39.8092' stroke-width='3.2' /><line stroke-linecap='round' stroke='#418dd9' x1='117.154' y1='41.4243' x2='72.8164' y2='39.8092' stroke-width='1.6' /></g></svg>